LINC00901	ACC
DCTD	ACC
RERE	ACC
LINC00290	ACC
CDKN2B	ACC
MTAP	ACC
C9ORF53	ACC
RB1	ACC
RBFOX1	ACC
LRRC37A16P	ACC
PRKAR1A	ACC
LPAR6	BLCA
CYSLTR2	BLCA
FKSG52	BLCA
CXXC11	BLCA
FAM132B	BLCA
RBM44	BLCA
COPS8	BLCA
MSL3P1	BLCA
DNAJB3	BLCA
UGT1A3	BLCA
ECEL1P2	BLCA
CSMD1	BRCA
RB1	BRCA
PADI6	BRCA
MST1L	BRCA
ESPNP	BRCA
CROCCP2	BRCA
CROCCP3	BRCA
C1ORF134	BRCA
C1ORF64	BRCA
PRAMEF18	BRCA
PADI3	BRCA
DNAJB3	CESC
UGT1A3	CESC
ECEL1P2	CESC
MGC4771	CESC
ALPI	CESC
GPC1	CESC
HDLBP	CESC
SAG	CESC
LRRFIP1	CESC
TRIP12	CESC
ECEL1	CESC
SNHG12	CHOL
C1ORF134	CHOL
C1ORF158	CHOL
TNFRSF9	CHOL
ALPL	CHOL
EPHA2	CHOL
ZBTB17	CHOL
VAMP3	CHOL
THEMIS2	CHOL
H6PD	CHOL
CROCC	CHOL
RBFOX1	COAD
PARK2	COAD
NPCDR1	COAD
HMGN2	COAD
CD52	COAD
ARID1A	COAD
NUDC	COAD
LIN28A	COAD
FAM46B	COAD
C1ORF172	COAD
ING2	COAD
FHIT	COADREAD
NR0B2	COADREAD
SYTL1	COADREAD
FAM46B	COADREAD
FOXC1	COADREAD
CSMD1	COADREAD
PDLIM3	COADREAD
UFSP2	COADREAD
FAM92A1P2	COADREAD
LINC00290	COADREAD
CLDN22	COADREAD
ACTA2	DLBC
IFIT2	DLBC
PGBD2	DLBC
ZNF670	DLBC
ZNF678	DLBC
CAPN8	DLBC
HLX	DLBC
HDAC1P2	DLBC
SNRPE	DLBC
RABIF	DLBC
F5	DLBC
FAM211A	ESCA
EVPLL	ESCA
LGALS9C	ESCA
MTMR8	ESCA
ZC4H2	ESCA
AMER1	ESCA
ASB12	ESCA
DKFZP667F0711	ESCA
AKR1C7P	ESCA
AKR1CL1	ESCA
AKR1C1	ESCA
DMRTA1	GBM
IFNA6	GBM
KLHL9	GBM
CDKN2A	GBM
CDKN2B	GBM
IFNA1	GBM
IFNA2	GBM
IFNA5	GBM
IFNA8	GBM
IFNA13	GBM
IFNA14	GBM
DMRTA1	GBMLGG
IFNA6	GBMLGG
KLHL9	GBMLGG
CDKN2A	GBMLGG
CDKN2B	GBMLGG
IFNA1	GBMLGG
IFNA2	GBMLGG
IFNA4	GBMLGG
IFNA5	GBMLGG
IFNA7	GBMLGG
IFNA8	GBMLGG
CDKN2A	HNSC
C9ORF53	HNSC
HSP90AA4P	HNSC
FAT1	HNSC
FRG1	HNSC
DUX4	HNSC
ZFP42	HNSC
TRIML2	HNSC
TRIML1	HNSC
DUX4L4	HNSC
FRG2	HNSC
TRANK1	KIRC
HSPD1P6	KIRC
TMPPE	KIRC
CCR4	KIRC
TRIM71	KIRC
GOLGA4	KIRC
MLH1	KIRC
STAC	KIRC
UBP1	KIRC
LRRFIP2	KIRC
EPM2AIP1	KIRC
LINC00524	KIRP
MEG9	KIRP
MEG8	KIRP
MEG3	KIRP
YY1	KIRP
DEGS2	KIRP
CCNK	KIRP
LINC00618	KIRP
DKFZP434O1614	KIRP
C14ORF132	KIRP
LINC00617	KIRP
ZNF212	LAML
ZNF282	LAML
CUL1	LAML
TRIM24	LAML
MGAM	LAML
ATP6V1F	LAML
UBE3C	LAML
FAM115A	LAML
TNPO3	LAML
GIMAP2	LAML
SLC13A4	LAML
MUC20	LGG
TCTEX1D2	LGG
ANKRD18DP	LGG
LINC00885	LGG
VPRBP	LGG
SEMA3B	LGG
SLC38A3	LGG
GNAT1	LGG
C3ORF62	LGG
NDUFAF3	LGG
TMEM89	LGG
RB1	LIHC
LINC00337	LIHC
MEGF6	LIHC
LINC00982	LIHC
TTC34	LIHC
TMEM240	LIHC
TAS1R3	LIHC
PRKCZ	LIHC
SKI	LIHC
TP73	LIHC
KLHL21	LIHC
PHF2P2	LUAD
NBPF15	LUAD
FCGR1B	LUAD
WNT2B	LUAD
CYMP	LUAD
KIAA1324	LUAD
TMEM167B	LUAD
TAF13	LUAD
SPATA42	LUAD
NBPF5P	LUAD
SLC25A24P1	LUAD
CDKN2A	LUSC
KLLN	LUSC
TRPC2	LUSC
TSSC2	LUSC
SLC22A18AS	LUSC
KCNQ1OT1	LUSC
RPL26P30	LUSC
C11ORF21	LUSC
H19	LUSC
C11ORF89	LUSC
FAM99B	LUSC
LPPR5	MESO
AMY1C	MESO
AMY2B	MESO
RHOC	MESO
CHI3L2	MESO
CNN3	MESO
COL11A1	MESO
DBT	MESO
CDC7	MESO
BCAR3	MESO
CDC14A	MESO
C19ORF24	OV
ATP5D	OV
EFNA2	OV
SBNO2	OV
KLF16	OV
MUM1	OV
MIDN	OV
REEP6	OV
PLK5	OV
C19ORF25	OV
ATP8B3	OV
DYNLL2	PAAD
SRSF1	PAAD
VEZF1	PAAD
MRPS23	PAAD
CLTC	PAAD
LPO	PAAD
MPO	PAAD
TRIM37	PAAD
SEPT4	PAAD
RAD51C	PAAD
SUPT4H1	PAAD
MAN1A2	PCPG
CMC1	PCPG
AZI2	PCPG
ZCWPW2	PCPG
ADM	PCPG
OR10AB1P	PCPG
GVINP1	PCPG
TAF10	PCPG
RRP8	PCPG
TIMM10B	PCPG
TRIM34	PCPG
PTEN	PRAD
KLLN	PRAD
ZNF292	PRAD
LINC00441	PRAD
LINC00562	PRAD
LINC00444	PRAD
LINC00563	PRAD
LINC00330	PRAD
TSC22D1	PRAD
LINC00284	PRAD
CPB2	PRAD
RBFOX1	READ
FLRT3	READ
PARK2	READ
FKSG52	READ
SDC3	READ
RAB42	READ
SNHG12	READ
GPN2	READ
ZDHHC18	READ
HMGN2	READ
AIM1L	READ
RB1	SARC
LPAR6	SARC
ATP1B2	SARC
TP53	SARC
CDKN2A	SARC
CDKN2B	SARC
C9ORF53	SARC
CXXC11	SARC
BOK	SARC
DTYMK	SARC
HDLBP	SARC
LINC00273	SKCM
ARHGAP23P1	SKCM
HERC2P8	SKCM
HERC2P5	SKCM
TP53TG3	SKCM
TP53TG3D	SKCM
HERC2P4	SKCM
ADCY7	SKCM
AMFR	SKCM
BBS2	SKCM
CBLN1	SKCM
PIH1	STAD
FKSG52	STAD
FOXC1	STAD
GMDS	STAD
FLRT3	STAD
NPCDR1	STAD
CDKN2A	STAD
C9ORF53	STAD
SMAD4	STAD
ELAC1	STAD
PARK2	STAD
PIH1	STES
CDKN2A	STES
C9ORF53	STES
FKSG52	STES
FOXC1	STES
GMDS	STES
NPCDR1	STES
FLRT3	STES
SMAD4	STES
ELAC1	STES
PARK2	STES
GIF	TGCT
GNG3	TGCT
GRIA4	TGCT
GRIK4	TGCT
GSTP1	TGCT
GTF2H1	TGCT
GUCY1A2	TGCT
H2AFX	TGCT
HBB	TGCT
HBD	TGCT
HBE1	TGCT
CRYL1	THCA
POMP	THCA
ATP8A2	THCA
IL17D	THCA
TNFRSF19	THCA
CENPJ	THCA
XPO4	THCA
MRP63	THCA
KATNAL1	THCA
MEDAG	THCA
LNX2	THCA
CDKN2B	THYM
C9ORF53	THYM
SEC14L6	THYM
KIAA1658	THYM
RFPL1S	THYM
AP1B1	THYM
EWSR1	THYM
MN1	THYM
THOC5	THYM
MTMR3	THYM
SEC14L2	THYM
PIAS4	UCEC
FZR1	UCEC
GNA11	UCEC
ZNF554	UCEC
AES	UCEC
DAPK3	UCEC
EEF2	UCEC
GNA15	UCEC
MATK	UCEC
NFIC	UCEC
MAP2K2	UCEC
CSNK1A1P1	UCS
ANP32AP1	UCS
GJD2	UCS
GOLGA8H	UCS
ULK4P2	UCS
GOLGA8Q	UCS
GOLGA8R	UCS
GOLGA8T	UCS
GOLGA8J	UCS
WHAMMP2	UCS
GOLGA8M	UCS
C11ORF58	UVM
LINC00339	UVM
UBXN10	UVM
PLA2G2C	UVM
PLA2G2D	UVM
PLA2G5	UVM
PLA2G2E	UVM
AKR7A2	UVM
AKR7A3	UVM
ALPL	UVM
C1QA	UVM
